{
    "movie_results": [
        {
            "imdb_id": "tt9847360",
            "title": "A Glitch in the Matrix",
            "year": 2021
        },
        {
            "imdb_id": "tt1974203",
            "title": "Adventures in Odyssey: Escape from the Forbidden Matrix",
            "year": 2001
        },
        {
            "imdb_id": "tt0109151",
            "title": "Armitage III: Poly Matrix",
            "year": 1996
        },
        {
            "imdb_id": "tt0303678",
            "title": "Armitage: Dual Matrix",
            "year": 2002
        },
        {
            "imdb_id": "tt1675286",
            "title": "CR: Enter the Matrix",
            "year": 0
        },
        {
            "imdb_id": "tt4074340",
            "title": "Elektro Mathematrix",
            "year": 2016
        },
        {
            "imdb_id": "tt0277828",
            "title": "Enter the Matrix",
            "year": 2003
        },
        {
            "imdb_id": "tt0365467",
            "title": "Making 'The Matrix'",
            "year": 1999
        },
        {
            "imdb_id": "tt0106062",
            "title": "Matrix",
            "year": 0
        },
        {
            "imdb_id": "tt0274085",
            "title": "Sex and the Matrix",
            "year": 2000
        },
        {
            "imdb_id": "tt1595473",
            "title": "The American Matrix - Age Of Deception",
            "year": 2010
        },
        {
            "imdb_id": "tt0328832",
            "title": "The Animatrix",
            "year": 2003
        },
        {
            "imdb_id": "tt1499960",
            "title": "The Living Matrix",
            "year": 2009
        },
        {
            "imdb_id": "tt0234215",
            "title": "The Matrix Reloaded",
            "year": 2003
        },
        {
            "imdb_id": "tt10838180",
            "title": "The Matrix Resurrections",
            "year": 2021
        },
        {
            "imdb_id": "tt0295432",
            "title": "The Matrix Revisited",
            "year": 2001
        },
        {
            "imdb_id": "tt0242653",
            "title": "The Matrix Revolutions",
            "year": 2003
        },
        {
            "imdb_id": "tt0133093",
            "title": "The Matrix",
            "year": 1999
        },
        {
            "imdb_id": "tt0451118",
            "title": "The Matrix: Path of Neo",
            "year": 2005
        },
        {
            "imdb_id": "tt1823684",
            "title": "Time Matrix",
            "year": 2013
        }
    ],
    "search_results": 20,
    "status": "OK",
    "status_message": "Query was successful"
}